\relax 
\providecommand\zref@newlabel[2]{}
\providecommand\hyper@newdestlabel[2]{}
\@writefile{toc}{\contentsline {chapter}{\numberline {4}Inférence statistique}{190}{chapter.4}\protected@file@percent }
\@writefile{lof}{\addvspace {10\p@ }}
\@writefile{lot}{\addvspace {10\p@ }}
\newlabel{defParametre}{{4.1}{190}{Paramètre}{cptDef.4.1}{}}
\newlabel{defStatistique}{{4.2}{190}{Statistique}{cptDef.4.2}{}}
\@writefile{toc}{\contentsline {section}{\numberline {4.1}Distribution de la variable d'échantillonnage \(\overline  {X}\)}{190}{section.4.1}\protected@file@percent }
\newlabel{defVarMoyenneEchantillonale}{{4.3}{190}{Variable moyenne échantillonnale}{cptDef.4.3}{}}
\newlabel{thmDistXbarreAvecRemise}{{4.1}{191}{Distribution de \(\overline {X}\)\dans {b}{\newline } (avec remise)}{cptThm.4.1}{}}
\newlabel{thmDistXbarreSansRemise}{{4.2}{191}{Distribution de \(\overline {X}\)\dans {b}{\newline } (sans remise)}{cptThm.4.2}{}}
\@writefile{toc}{\contentsline {section}{\numberline {4.2}Distribution de la variable d'échantillonnage \(\overline  {P}$}{191}{section.4.2}\protected@file@percent }
\newlabel{defVarPropEchantillonale}{{4.4}{191}{Variable proportion échantillonnale}{cptDef.4.4}{}}
\newlabel{thmDistributionPbarreAvecRemise}{{4.3}{192}{Distributions de \(\overline {P}\)\dans {b}{\newline } (avec remise)}{cptThm.4.3}{}}
\newlabel{thmDistributionPbarreSansRemise}{{4.4}{192}{Distributions de \(\overline {P}\)\dans {b}{\newline } (sans remise)}{cptThm.4.4}{}}
\@writefile{toc}{\contentsline {section}{\numberline {4.3}Estimation}{192}{section.4.3}\protected@file@percent }
\@writefile{toc}{\contentsline {subsection}{\numberline {4.3.1}Estimation ponctuelle}{192}{subsection.4.3.1}\protected@file@percent }
\newlabel{defEstimationPonc}{{4.5}{192}{Estimation ponctuelle}{cptDef.4.5}{}}
\newlabel{defEstimationIntConf}{{4.6}{192}{Estimation par intervalle de confiance}{cptDef.4.6}{}}
\@writefile{toc}{\contentsline {subsection}{\numberline {4.3.2}Estimation de $\mu $ par intervalle de confiance}{193}{subsection.4.3.2}\protected@file@percent }
\newlabel{thmIntervalleConfMoySigConnue}{{4.5}{193}{Intervalle de confiance pour \(\mu \) avec \(\sigma \) connue}{cptThm.4.5}{}}
\newlabel{thmIntervalleConfMoySigInconnue}{{4.6}{194}{Intervalle de confiance pour \(\mu \) avec \(\sigma \)\dans {n}{\newline } inconnue}{cptThm.4.6}{}}
\@writefile{toc}{\contentsline {subsection}{\numberline {4.3.3}Estimation de \(\pi \) par intervalle de confiance}{194}{subsection.4.3.3}\protected@file@percent }
\newlabel{thmIntervalleConfProportion}{{4.7}{194}{Intervalle de confiance pour \(\pi \)}{cptThm.4.7}{}}
\@writefile{toc}{\contentsline {section}{\numberline {4.4}Tests d'hypothèses}{194}{section.4.4}\protected@file@percent }
\@writefile{toc}{\contentsline {subsection}{\numberline {4.4.1}Étapes d'un test d'hypothèses}{194}{subsection.4.4.1}\protected@file@percent }
\@writefile{toc}{\contentsline {subsection}{\numberline {4.4.2}Test d'hypothèses sur une moyenne}{194}{subsection.4.4.2}\protected@file@percent }
\@writefile{toc}{\contentsline {subsection}{\numberline {4.4.3}Test d'hypothèses sur une proportion}{194}{subsection.4.4.3}\protected@file@percent }
\@writefile{toc}{\contentsline {subsection}{\numberline {4.4.4}Test d'indépendance du khi carré}{194}{subsection.4.4.4}\protected@file@percent }
\newlabel{defTabloDoubleEntree}{{4.7}{194}{}{cptDef.4.7}{}}
\newlabel{defDistMarginale}{{4.8}{195}{Distribution marginale}{cptDef.4.8}{}}
\newlabel{defDistCond}{{4.9}{195}{Distribution conditionnelle}{cptDef.4.9}{}}
\newlabel{defFreqOb}{{4.10}{195}{Fréquences observées}{cptDef.4.10}{}}
\newlabel{defFreqTheo}{{4.11}{195}{Fréquences théoriques}{cptDef.4.11}{}}
\newlabel{defKhiCarre}{{4.12}{195}{Khi carré}{cptDef.4.12}{}}
\@writefile{toc}{\contentsline {subsection}{\numberline {4.4.5}Ajustement à une loi}{195}{subsection.4.4.5}\protected@file@percent }
\@setckpt{Chapitres/chap_inference}{
\setcounter{page}{196}
\setcounter{equation}{0}
\setcounter{enumi}{3}
\setcounter{enumii}{2}
\setcounter{enumiii}{2}
\setcounter{enumiv}{0}
\setcounter{footnote}{0}
\setcounter{mpfootnote}{0}
\setcounter{part}{0}
\setcounter{chapter}{4}
\setcounter{section}{4}
\setcounter{subsection}{5}
\setcounter{subsubsection}{0}
\setcounter{paragraph}{0}
\setcounter{subparagraph}{0}
\setcounter{figure}{0}
\setcounter{table}{0}
\setcounter{beamerpauses}{45}
\setcounter{framenumber}{0}
\setcounter{parentequation}{0}
\setcounter{theorem}{0}
\setcounter{tcbbreakpart}{1}
\setcounter{tcblayer}{0}
\setcounter{tcolorbox@number}{530}
\setcounter{tcbrastercolumn}{1}
\setcounter{tcbrasterrow}{1}
\setcounter{tcbrasternum}{1}
\setcounter{tcbraster}{0}
\setcounter{lstnumber}{1}
\setcounter{tcblisting}{0}
\setcounter{@anim@ltxcnt}{0}
\setcounter{@pps}{0}
\setcounter{@ppsavesec}{0}
\setcounter{@ppsaveapp}{0}
\setcounter{caption@flags}{2}
\setcounter{continuedfloat}{0}
\setcounter{cpt@texte@cache}{190}
\setcounter{section@level}{2}
\setcounter{Item}{426}
\setcounter{bookmark@seq@number}{0}
\setcounter{cpt@ques@exercices@man}{0}
\setcounter{cpt@exemples@man}{0}
\setcounter{cptThm}{7}
\setcounter{cptDef}{12}
\setcounter{dljs@cnt}{1}
\setcounter{dljssegs}{3}
\setcounter{LT@tables}{2}
\setcounter{LT@chunks}{2}
\setcounter{atfi@flags}{132}
\setcounter{lstlisting}{0}
}
